       0.000000 
      -0.000000 
       0.000000 
      -0.000000 
       0.000000 
      -0.000000 
       0.000000 
      -0.000000 
       0.000000 
      -0.000000 
       0.000000 
      -0.000000 
       0.000000 
      -0.000000 
       0.000000 
      -0.000000 
       0.000000 
      -0.000000 
       0.000000 
      -0.000000 
       0.000000 
      -0.000000 
       0.000000 
      -0.000000 
       0.000000 
      -0.000000 
       0.000000 
      -0.000000 
       0.000000 
      -0.000000 
       0.000000 
      -0.000000 
       0.000000 
      -0.000000 
       0.000000 
       0.000000 
       0.000000 
       0.000000 
       0.000005 
       0.000044 
       0.000327 
       0.001936 
       0.009031 
       0.033223 
       0.096423 
       0.220648 
       0.399265 
       0.567768 
       0.638296 
       0.567768 
       0.399265 
       0.220648 
       0.096423 
       0.033223 
       0.009031 
       0.001936 
       0.000327 
       0.000044 
       0.000005 
       0.000000 
       0.000000 
       0.000000 
       0.000000 
      -0.000000 
       0.000000 
      -0.000000 
       0.000000 
      -0.000000 
       0.000000 
      -0.000000 
       0.000000 
      -0.000000 
       0.000000 
      -0.000000 
       0.000000 
      -0.000000 
       0.000000 
      -0.000000 
       0.000000 
      -0.000000 
       0.000000 
      -0.000000 
       0.000000 
      -0.000000 
       0.000000 
      -0.000000 
       0.000000 
      -0.000000 
       0.000000 
      -0.000000 
       0.000000 
      -0.000000 
       0.000000 
      -0.000000 
       0.000000 
      -0.000000 
