       0.000017 
      -0.000017 
       0.000017 
      -0.000017 
       0.000017 
      -0.000017 
       0.000017 
      -0.000017 
       0.000017 
      -0.000017 
       0.000017 
      -0.000017 
       0.000017 
      -0.000017 
       0.000017 
      -0.000017 
       0.000017 
      -0.000017 
       0.000017 
      -0.000017 
       0.000017 
      -0.000017 
       0.000017 
      -0.000017 
       0.000017 
      -0.000017 
       0.000017 
      -0.000017 
       0.000016 
      -0.000016 
       0.000016 
      -0.000016 
       0.000016 
      -0.000016 
       0.000015 
      -0.000014 
       0.000019 
       0.000016 
       0.000171 
       0.000696 
       0.002693 
       0.008685 
       0.024013 
       0.056712 
       0.114106 
       0.195693 
       0.285754 
       0.351965 
       0.375383 
       0.351965 
       0.285754 
       0.195693 
       0.114106 
       0.056712 
       0.024013 
       0.008685 
       0.002693 
       0.000696 
       0.000171 
       0.000016 
       0.000019 
      -0.000014 
       0.000015 
      -0.000016 
       0.000016 
      -0.000016 
       0.000016 
      -0.000016 
       0.000016 
      -0.000017 
       0.000017 
      -0.000017 
       0.000017 
      -0.000017 
       0.000017 
      -0.000017 
       0.000017 
      -0.000017 
       0.000017 
      -0.000017 
       0.000017 
      -0.000017 
       0.000017 
      -0.000017 
       0.000017 
      -0.000017 
       0.000017 
      -0.000017 
       0.000017 
      -0.000017 
       0.000017 
      -0.000017 
       0.000017 
      -0.000017 
       0.000017 
      -0.000017 
